Into to R Workshop
…
#library(tidyverse)
#library(dplyr)
#library(ggplot2)

To run code, you have a few options. You can click the green arrow at the top right of the code chunk, highlight the lines you wish to run and hit Run at the top right of the pane, hit CTRL+ENTER to run the current line or CTRL+SHIFT+ENTER to run the current chunk.

Explore the data

Load data

Today well be using a dataset about mammalian sleep that comes built in to ggplot2.

msleep

## # A tibble: 83 x 11
##    name  genus vore  order conservation sleep_total sleep_rem sleep_cycle awake
##    <chr> <chr> <chr> <chr> <chr>              <dbl>     <dbl>       <dbl> <dbl>
##  1 Chee Acin carni Carn lc                  12.1      NA        NA      11.9
##  2 Owl  Aotus omni  Prim <NA>                17         1.8      NA       7  
##  3 Moun Aplo herbi Rode nt                  14.4       2.4      NA       9.6
##  4 Grea Blar omni  Sori lc                  14.9       2.3       0.133   9.1
##  5 Cow   Bos   herbi Arti domesticated         4         0.7       0.667  20  
##  6 Thre Brad herbi Pilo <NA>                14.4       2.2       0.767   9.6
##  7 Nort Call carni Carn vu                   8.7       1.4       0.383  15.3
##  8 Vesp Calo <NA>  Rode <NA>                 7        NA        NA      17  
##  9 Dog   Canis carni Carn domesticated        10.1       2.9       0.333  13.9
## 10 Roe  Capr herbi Arti lc                   3        NA        NA      21  
## #  with 73 more rows, and 2 more variables: brainwt <dbl>, bodywt <dbl>
…
